Linear regression
…
Variable selection

myModel <- lm(log(WAGE) ~ SECTOR + UNION + EDUCATION + EXPERIENCE + SEX + MARR + 
    RACE + SOUTH, data = mydf)
k <- ols_step_all_possible(myModel)
k

## # A tibble: 255 x 6
##    Index     N Predictors          `R-Square` `Adj. R-Square` `Mallow's Cp`
##    <int> <int> <chr>                    <dbl>           <dbl>         <dbl>
##  1     1     1 EDUCATION              0.146           0.144           140. 
##  2     2     1 SEX                    0.0519          0.0501          214. 
##  3     3     1 UNION                  0.0454          0.0436          219. 
##  4     4     1 SOUTH                  0.0287          0.0269          232. 
##  5     5     1 MARR                   0.0213          0.0195          237. 
##  6     6     1 EXPERIENCE             0.0138          0.0119          243. 
##  7     7     1 RACE                   0.00947         0.00760         247. 
##  8     8     1 SECTOR                 0.00660         0.00473         249. 
##  9     9     2 EDUCATION EXPERIEN~    0.219           0.216            85.1
## 10    10     2 EDUCATION SEX          0.198           0.195           101. 
## # ... with 245 more rows
…
